<svg width="55" height="55" viewBox="0 0 55 55" fill="none" xmlns="http://www.w3.org/2000/svg">
<path d="M51.9564 14.9131C50.0306 11.178 47.222 7.87982 43.8348 5.37496C43.3377 5.00748 42.6371 5.1125 42.2694 5.60944C41.9017 6.10639 42.0069 6.80722 42.5039 7.17489C45.6167 9.47679 48.1973 12.5073 49.967 15.9391C51.8212 19.535 52.7613 23.4246 52.7613 27.5001C52.7613 41.4292 41.429 52.7615 27.4999 52.7615C13.5708 52.7615 2.23848 41.4292 2.23848 27.4999C2.23848 13.5706 13.5708 2.23848 27.4999 2.23848C28.1179 2.23848 28.6191 1.73725 28.6191 1.11924C28.6191 0.501233 28.1179 0 27.4999 0C12.3364 0 0 12.3364 0 27.4999C0 42.6634 12.3364 54.9998 27.4999 54.9998C42.6634 54.9998 54.9998 42.6634 54.9998 27.4999C54.9998 23.1267 53.9475 18.7743 51.9564 14.9131Z" fill="white"/>
<path d="M20.4632 14.7309C20.1133 14.9299 19.8971 15.3015 19.8971 15.7038V40.2663C19.8971 40.8845 20.3983 41.3856 21.0163 41.3856C21.6343 41.3856 22.1356 40.8845 22.1356 40.2663V17.6728L38.7065 27.5376L26.5209 35.3885C26.0014 35.7233 25.8515 36.4159 26.1863 36.9355C26.5213 37.4552 27.2138 37.6051 27.7335 37.2701L41.4376 28.4406C41.7633 28.2308 41.9573 27.8674 41.9504 27.4799C41.9435 27.0925 41.7368 26.7362 41.4038 26.5379L21.5888 14.742C21.2426 14.5363 20.8132 14.5318 20.4632 14.7309Z" fill="white"/>
</svg>
